^C:\USERS\11428615\DOCUMENTS\VISUAL STUDIO 2015\PROJECTS\EXERCISE3 - BALANE 11428615 3-12-16\EXERCISE3 - BALANE 11428615 3-12-16\STDAFX.CPP
C:\USERS\11428615\DOCUMENTS\VISUAL STUDIO 2015\PROJECTS\EXERCISE3 - BALANE 11428615 3-12-16\EXERCISE3 - BALANE 11428615 3-12-16\DEBUG\EXERCISE3 - BALANE 11428615 3-12-16.PCH
C:\USERS\11428615\DOCUMENTS\VISUAL STUDIO 2015\PROJECTS\EXERCISE3 - BALANE 11428615 3-12-16\EXERCISE3 - BALANE 11428615 3-12-16\DEBUG\VC140.PDB
C:\USERS\11428615\DOCUMENTS\VISUAL STUDIO 2015\PROJECTS\EXERCISE3 - BALANE 11428615 3-12-16\EXERCISE3 - BALANE 11428615 3-12-16\DEBUG\VC140.IDB
C:\USERS\11428615\DOCUMENTS\VISUAL STUDIO 2015\PROJECTS\EXERCISE3 - BALANE 11428615 3-12-16\EXERCISE3 - BALANE 11428615 3-12-16\DEBUG\STDAFX.OBJ
^C:\USERS\11428615\DOCUMENTS\VISUAL STUDIO 2015\PROJECTS\EXERCISE3 - BALANE 11428615 3-12-16\EXERCISE3 - BALANE 11428615 3-12-16\EXERCISE3 - BALANE 11428615 3-12-16.CPP
C:\USERS\11428615\DOCUMENTS\VISUAL STUDIO 2015\PROJECTS\EXERCISE3 - BALANE 11428615 3-12-16\EXERCISE3 - BALANE 11428615 3-12-16\DEBUG\VC140.PDB
C:\USERS\11428615\DOCUMENTS\VISUAL STUDIO 2015\PROJECTS\EXERCISE3 - BALANE 11428615 3-12-16\EXERCISE3 - BALANE 11428615 3-12-16\DEBUG\VC140.IDB
C:\USERS\11428615\DOCUMENTS\VISUAL STUDIO 2015\PROJECTS\EXERCISE3 - BALANE 11428615 3-12-16\EXERCISE3 - BALANE 11428615 3-12-16\DEBUG\EXERCISE3 - BALANE 11428615 3-12-16.OBJ
^C:\USERS\11428615\DOCUMENTS\SY16T3-G-ENGN1-TG201-BALANE-EJ\EXERCISE3 - BALANE 11428615 3-12-16\EXERCISE3 - BALANE 11428615 3-12-16\STDAFX.CPP
C:\USERS\11428615\DOCUMENTS\SY16T3-G-ENGN1-TG201-BALANE-EJ\EXERCISE3 - BALANE 11428615 3-12-16\EXERCISE3 - BALANE 11428615 3-12-16\DEBUG\EXERCISE3 - BALANE 11428615 3-12-16.PCH
C:\USERS\11428615\DOCUMENTS\SY16T3-G-ENGN1-TG201-BALANE-EJ\EXERCISE3 - BALANE 11428615 3-12-16\EXERCISE3 - BALANE 11428615 3-12-16\DEBUG\VC140.PDB
C:\USERS\11428615\DOCUMENTS\SY16T3-G-ENGN1-TG201-BALANE-EJ\EXERCISE3 - BALANE 11428615 3-12-16\EXERCISE3 - BALANE 11428615 3-12-16\DEBUG\VC140.IDB
C:\USERS\11428615\DOCUMENTS\SY16T3-G-ENGN1-TG201-BALANE-EJ\EXERCISE3 - BALANE 11428615 3-12-16\EXERCISE3 - BALANE 11428615 3-12-16\DEBUG\STDAFX.OBJ
^C:\USERS\11428615\DOCUMENTS\SY16T3-G-ENGN1-TG201-BALANE-EJ\EXERCISE3 - BALANE 11428615 3-12-16\EXERCISE3 - BALANE 11428615 3-12-16\EXERCISE3 - BALANE 11428615 3-12-16.CPP
C:\USERS\11428615\DOCUMENTS\SY16T3-G-ENGN1-TG201-BALANE-EJ\EXERCISE3 - BALANE 11428615 3-12-16\EXERCISE3 - BALANE 11428615 3-12-16\DEBUG\VC140.PDB
C:\USERS\11428615\DOCUMENTS\SY16T3-G-ENGN1-TG201-BALANE-EJ\EXERCISE3 - BALANE 11428615 3-12-16\EXERCISE3 - BALANE 11428615 3-12-16\DEBUG\VC140.IDB
C:\USERS\11428615\DOCUMENTS\SY16T3-G-ENGN1-TG201-BALANE-EJ\EXERCISE3 - BALANE 11428615 3-12-16\EXERCISE3 - BALANE 11428615 3-12-16\DEBUG\EXERCISE3 - BALANE 11428615 3-12-16.OBJ
