^C:\USERS\11428615\DOCUMENTS\SY16T3-G-ENGN1-TG201-BALANE-EJ\QUIZ1 - BALANE, EJ - 11428615\QUIZ1 - BALANE, EJ - 11428615\DEBUG\QUIZ1 - BALANE, EJ - 11428615.OBJ|C:\USERS\11428615\DOCUMENTS\SY16T3-G-ENGN1-TG201-BALANE-EJ\QUIZ1 - BALANE, EJ - 11428615\QUIZ1 - BALANE, EJ - 11428615\DEBUG\STDAFX.OBJ
C:\USERS\11428615\DOCUMENTS\SY16T3-G-ENGN1-TG201-BALANE-EJ\QUIZ1 - BALANE, EJ - 11428615\DEBUG\QUIZ1 - BALANE, EJ - 11428615.ILK
C:\USERS\11428615\DOCUMENTS\SY16T3-G-ENGN1-TG201-BALANE-EJ\QUIZ1 - BALANE, EJ - 11428615\DEBUG\QUIZ1 - BALANE, EJ - 11428615.EXE
C:\USERS\11428615\DOCUMENTS\SY16T3-G-ENGN1-TG201-BALANE-EJ\QUIZ1 - BALANE, EJ - 11428615\DEBUG\QUIZ1 - BALANE, EJ - 11428615.PDB
